module gitlab.com/jhinrichsen/adventofcode2023

go 1.22

require github.com/fatih/color v1.17.0

require (
	github.com/mattn/go-colorable v0.1.13 // indirect
	github.com/mattn/go-isatty v0.0.20 // indirect
	golang.org/x/sys v0.18.0 // indirect
)
